%YAML 1.1
%TAG !u! tag:unity3d.com,2011:
--- !u!1045 &1
EditorBuildSettings:
  m_ObjectHideFlags: 0
  serializedVersion: 2
  m_Scenes:
  - enabled: 1
    path: "Assets/Scenes/ValgAfK\xF8n.unity"
    guid: 05c01c791fbd0e64095ccbe222605677
  - enabled: 1
    path: Assets/Scenes/ValgAfScene.unity
    guid: a642c8b9c13282f41a0e187e5d9929b5
  - enabled: 1
    path: Assets/Scenes/Scene1.unity
    guid: f307d8e9dc6fddb4f9069929bca4618a
  - enabled: 1
    path: Assets/Scenes/Scene2.unity
    guid: 4e39ea7e0ed2ee545bf6c6553fd63e78
  m_configObjects: {}
